<svg width="200" height="48" viewBox="0 0 200 48" fill="none" xmlns="http://www.w3.org/2000/svg">
<rect width="200" height="48" rx="4" fill="white"/>
<path d="M62.5478 27.0762L60.4922 31.348C60.6726 31.5425 60.8862 31.7001 61.1314 31.8187C61.583 32.0373 62.0791 32.1485 62.6055 32.1485C63.1314 32.1485 63.627 32.0373 64.0796 31.8187C64.5209 31.6047 64.8602 31.2654 65.0883 30.8092L69.8151 21.0097C69.8793 20.836 70.0399 20.7331 70.2618 20.7331C70.3945 20.7331 70.5169 20.7816 70.6247 20.8783C70.7375 20.9799 70.7948 21.1259 70.7948 21.3113V31.8254H74.4804V20.5734C74.4804 19.7248 74.3568 19.018 74.1138 18.4722C73.872 17.9305 73.5273 17.4775 73.0885 17.1266C72.7508 16.862 72.3568 16.6409 71.9209 16.4705C71.4878 16.3021 70.9996 16.217 70.4696 16.217C69.5156 16.217 68.7371 16.4746 68.1555 16.9836C67.5608 17.5041 67.0626 18.1918 66.674 19.028L63.1459 26.6843C63.0215 27.009 62.7826 27.0787 62.6055 27.0787C62.586 27.0787 62.5669 27.0779 62.5478 27.0762ZM95.0984 31.8254L95.9363 30.0846L90.8918 19.0039C90.4617 18.069 89.8876 17.3631 89.1866 16.9052C88.4865 16.4485 87.5968 16.217 86.5433 16.217C85.4587 16.217 84.5578 16.4481 83.8659 16.9047C83.1724 17.3622 82.6025 18.0686 82.172 19.0043L76.5912 31.3642C76.5294 31.4886 76.4817 31.5985 76.4465 31.6976C76.4315 31.7387 76.4178 31.7814 76.4037 31.8254H80.8746C80.8883 31.7706 80.9044 31.7151 80.9227 31.6603L81.0148 31.3837L81.87 29.4039H91.3086L92.1821 31.3928C92.2153 31.477 92.246 31.5591 92.2775 31.6445C92.2974 31.7005 92.3178 31.7607 92.3385 31.8254H95.0984ZM85.7241 20.4863C85.8145 20.269 85.9394 20.1143 86.0945 20.0272C86.4043 19.8529 86.7843 19.8654 87.068 20.0425C87.2185 20.1367 87.3401 20.2847 87.4301 20.4826L89.9283 26.2948H83.2517L85.7241 20.4863ZM102.444 16.5626H99.5962C98.9915 16.5626 98.7223 16.811 98.7223 17.3676V24.2956L102.444 16.5626Z" fill="#ED1F27"/>
<path d="M117.454 16.5817V20.3831H124.303V31.8445H128.173V20.3831H135V16.5817H117.454ZM102.287 16.5817L98.7279 23.9771V31.8445H102.575V26.3098H110.003C110.662 26.3098 111.127 26.4276 111.421 26.6702C111.721 26.9174 111.873 27.3164 111.873 27.8569V30.9706C111.873 31.2663 111.89 31.56 111.923 31.8445H115.813C115.795 31.6856 115.783 31.5259 115.778 31.3683C115.77 31.158 115.766 30.8843 115.766 30.5322V27.4189C115.766 26.5574 115.652 25.8917 115.426 25.4396C115.203 24.9941 114.84 24.6212 114.347 24.3309L114.132 24.204L114.335 24.0575C114.86 23.6788 115.228 23.2193 115.431 22.6904C115.638 22.1504 115.743 21.5689 115.743 20.9617C115.743 20.4017 115.634 19.8609 115.421 19.3528C115.208 18.8443 114.912 18.3913 114.543 18.0077C114.13 17.58 113.612 17.2316 113.006 16.9724C112.398 16.7131 111.613 16.5817 110.672 16.5817H102.287ZM95.8626 29.9303L94.9414 31.8445H96.7112C96.6976 31.8005 96.6835 31.7578 96.6689 31.7172C96.6333 31.6176 96.5856 31.5073 96.5267 31.3891L95.8626 29.9303ZM102.575 20.6618C102.575 20.3428 102.765 20.152 103.084 20.152H110.118C110.672 20.152 111.093 20.3105 111.37 20.622C111.625 20.8766 111.757 21.2101 111.757 21.6071C111.757 21.9364 111.644 22.2425 111.421 22.5175C111.284 22.6888 111.111 22.8273 110.906 22.9298C110.699 23.033 110.434 23.0857 110.118 23.0857H102.575V20.6618Z" fill="#F9EE1E"/>
<path d="M60.4845 31.3264L62.5314 27.0729C62.3223 27.0435 62.1614 26.9045 62.0726 26.6743L58.5487 19.0275C58.1605 18.1922 57.6586 17.5045 57.0568 16.984C56.467 16.475 55.6926 16.217 54.7535 16.217C54.2234 16.217 53.7353 16.3021 53.3022 16.4705C52.8659 16.6409 52.4723 16.862 52.133 17.1279C51.6962 17.4771 51.3511 17.9301 51.1093 18.4722C50.8663 19.0172 50.7427 19.7244 50.7427 20.5734V31.8254H54.4283V21.3113C54.4283 21.1251 54.4856 20.9795 54.598 20.8787C54.7054 20.7816 54.8278 20.7331 54.9613 20.7331C55.1828 20.7331 55.3438 20.836 55.4139 21.0234L60.1356 30.8113C60.2319 31.0037 60.3484 31.1759 60.4845 31.3264ZM36.8117 16.5626C35.7917 16.5626 34.9663 16.687 34.3587 16.9313C33.7536 17.1748 33.2446 17.5074 32.8473 17.9197C32.4474 18.334 32.1285 18.8144 31.8995 19.3465C31.671 19.8766 31.5557 20.4523 31.5557 21.0579C31.5557 21.6788 31.6677 22.2586 31.8887 22.7812C32.1102 23.3064 32.425 23.7821 32.824 24.196C33.2206 24.6075 33.7332 24.9402 34.3467 25.184C34.9622 25.4283 35.7913 25.5528 36.8117 25.5528H43.1536C43.4808 25.5528 43.728 25.5818 43.9089 25.6419C44.0972 25.7046 44.2569 25.8099 44.3834 25.9543C44.6223 26.1928 44.7471 26.5113 44.7471 26.8925C44.7471 27.2077 44.6484 27.484 44.4543 27.7129C44.3282 27.8573 44.1631 27.9692 43.9628 28.0476C43.7649 28.1252 43.4999 28.1629 43.1536 28.1629H31.9704V31.8254H43.8914C44.7861 31.8254 45.551 31.6831 46.164 31.4023C46.7779 31.1211 47.2988 30.7395 47.7119 30.2671C48.0508 29.8689 48.325 29.411 48.5249 28.9075C48.7236 28.4068 48.8243 27.8763 48.8243 27.3305C48.8243 26.7407 48.7086 26.1733 48.4801 25.6424C48.2507 25.1098 47.9322 24.6295 47.5327 24.2155C47.135 23.8028 46.6372 23.4702 46.0541 23.2267C45.4692 22.9824 44.7413 22.8584 43.8914 22.8584H37.0423C36.7768 22.8584 36.5765 22.8372 36.4305 22.7945C36.2795 22.7501 36.1472 22.6813 36.0377 22.5896C35.7391 22.3445 35.5873 22.0222 35.5873 21.6344C35.5873 21.2677 35.7117 20.9575 35.9577 20.7115C36.0659 20.6037 36.2061 20.517 36.3745 20.4548C36.54 20.3934 36.7586 20.364 37.0423 20.364H48.0865V16.5626H36.8117Z" fill="#29ABE2"/>
<path fill-rule="evenodd" clip-rule="evenodd" d="M17.9201 14.229C21.6736 15.7548 24.3202 19.4376 24.3202 23.7394C24.3202 29.4078 19.7254 34.0029 14.057 34.0029C13.566 34.0029 13.084 33.9661 12.6112 33.8992L9.41016 37.005C10.865 37.5149 12.4283 37.7927 14.057 37.7927C21.8184 37.7927 28.1104 31.5008 28.1104 23.7394C28.1104 18.4064 25.1396 13.7682 20.7634 11.3869C20.7359 11.3722 17.8178 14.1868 17.9201 14.229Z" fill="#F9EE1E"/>
<path fill-rule="evenodd" clip-rule="evenodd" d="M28.1106 23.7669C28.1106 18.4472 25.1545 13.8187 20.7964 11.4324C20.7964 11.4324 17.9374 14.2615 18.0973 14.3301C19.6273 14.9859 20.9654 16.0039 22.0051 17.2753C26.667 22.8445 26.3233 31.2872 23.986 33.7123C26.5341 31.1685 28.1106 27.6519 28.1106 23.7669Z" fill="#EED126"/>
<path fill-rule="evenodd" clip-rule="evenodd" d="M10.4991 33.3847C6.5828 31.9387 3.79016 28.1729 3.79016 23.7545C3.79016 18.0861 8.38516 13.491 14.0534 13.491C14.5444 13.491 15.0265 13.5278 15.499 13.5945L18.7002 10.4884C17.2454 9.97888 15.6821 9.70081 14.0534 9.70081C6.29194 9.70081 0 15.9929 0 23.7545C0 29.1205 3.0078 33.7834 7.42894 36.1509L10.4991 33.3847Z" fill="#29ABE2"/>
<path fill-rule="evenodd" clip-rule="evenodd" d="M0 23.7476C0 29.1135 3.00797 33.7765 7.42894 36.144L10.4991 33.3778C8.76606 32.7381 7.2537 31.643 6.10564 30.2391H6.10529C1.44358 24.6696 1.7875 16.2267 4.1244 13.802C1.57666 16.3459 0 19.8625 0 23.7476Z" fill="#2597C7"/>
<path fill-rule="evenodd" clip-rule="evenodd" d="M21.435 21.9979H21.4352L17.1381 21.9766C16.149 21.9759 16.5576 21.135 16.5586 21.1333L24.3298 7.83252L6.76151 24.9106C6.13399 25.5221 6.53753 26.4564 7.58345 26.4564H11.0625C11.8499 26.4564 11.7419 26.8623 11.4695 27.2774L3.00781 40.1394L21.7347 23.2189C22.4733 22.5501 21.9578 21.9979 21.435 21.9979Z" fill="#ED1F27"/>
<path fill-rule="evenodd" clip-rule="evenodd" d="M21.435 21.9979H21.4352L17.1381 21.9766C16.149 21.9759 16.5576 21.135 16.5586 21.1333L24.3298 7.83252L11.8231 23.6871H17L3.00781 40.1394L21.7347 23.2189C22.4733 22.5501 21.9578 21.9979 21.435 21.9979Z" fill="#D2181F"/>
<g opacity="0.7">
<g opacity="0.7">
<path opacity="0.7" d="M5.24023 13.7856C5.24023 13.7856 5.26806 13.75 5.3244 13.6866C5.38005 13.6221 5.46266 13.5283 5.57482 13.4158C5.68715 13.3038 5.82489 13.1679 5.99236 13.0229C6.15999 12.8783 6.34941 12.7136 6.57097 12.5541C6.78578 12.384 7.03344 12.2221 7.2963 12.0501C7.42747 11.9637 7.56919 11.887 7.71038 11.8018C7.85279 11.7187 7.99796 11.6319 8.15315 11.5593C8.46147 11.41 8.77462 11.2403 9.11387 11.1169C9.28186 11.0516 9.44915 10.9793 9.62111 10.9185C9.79479 10.862 9.96917 10.8051 10.1434 10.7484C10.4907 10.6297 10.8533 10.5654 11.2036 10.4799C11.292 10.4609 11.3787 10.437 11.4668 10.4221C11.5555 10.4102 11.6436 10.3983 11.7314 10.3865C11.9065 10.363 12.0795 10.3399 12.2497 10.3169C12.4193 10.2903 12.5873 10.2768 12.7528 10.2744C12.9177 10.2683 13.0789 10.2625 13.236 10.2568C13.5492 10.2331 13.8461 10.2619 14.1188 10.2791C14.3912 10.3001 14.6409 10.3038 14.8595 10.3465C15.0783 10.3817 15.2681 10.4187 15.4238 10.4477C15.735 10.5073 15.9105 10.5468 15.9105 10.5468C15.9105 10.5468 15.7281 10.5559 15.4131 10.5625C15.2558 10.5649 15.0652 10.5694 14.8479 10.5678C14.7396 10.5639 14.6238 10.5737 14.502 10.5851C14.3805 10.5936 14.2527 10.6026 14.1195 10.6117C13.8535 10.6314 13.5661 10.6404 13.2649 10.6883C13.1144 10.7082 12.9597 10.7286 12.8016 10.7493C12.7227 10.76 12.6429 10.7697 12.5624 10.7783C12.4818 10.7884 12.4018 10.8079 12.3204 10.8224C12.1583 10.8535 11.9936 10.8853 11.8267 10.9175C11.6597 10.9487 11.491 10.9805 11.3239 11.0263C10.9893 11.115 10.6435 11.1829 10.3122 11.3023C10.1441 11.3537 9.97574 11.4048 9.80827 11.456C9.64202 11.5111 9.48043 11.5776 9.3178 11.6373C8.99117 11.7532 8.67767 11.8875 8.3735 12.018C8.219 12.0781 8.07746 12.1581 7.93142 12.223C7.78798 12.2921 7.64367 12.3533 7.50939 12.4246C7.2429 12.5702 6.98176 12.6946 6.75277 12.8309C6.51964 12.9606 6.31052 13.0874 6.12387 13.2001C5.93999 13.3159 5.77858 13.4173 5.64792 13.5043C5.51865 13.5931 5.4134 13.6593 5.34566 13.7096C5.27584 13.7576 5.24023 13.7856 5.24023 13.7856Z" fill="white"/>
</g>
</g>
<g opacity="0.7">
<g opacity="0.7">
<path opacity="0.7" d="M12.7588 36.6606C12.7588 36.6606 12.9104 36.6431 13.1758 36.6126C13.3075 36.5961 13.4674 36.5763 13.6507 36.5535C13.8334 36.5248 14.0392 36.5014 14.2625 36.466C14.4861 36.4339 14.7271 36.3931 14.9813 36.3507C15.2364 36.3139 15.5011 36.2495 15.7775 36.2052C16.0521 36.1494 16.3343 36.0854 16.6205 36.0212C16.9038 35.9451 17.1974 35.8902 17.4812 35.8005C17.6244 35.7609 17.7679 35.721 17.9106 35.6816C18.0532 35.6415 18.1918 35.5913 18.3316 35.5478C18.4704 35.5018 18.609 35.4584 18.7467 35.4173C18.881 35.3672 19.0137 35.3176 19.1442 35.2687C19.2754 35.2208 19.4028 35.1704 19.5305 35.1268C19.654 35.0741 19.7749 35.0226 19.8925 34.9725C20.1281 34.8712 20.3557 34.7831 20.5539 34.6783C20.7546 34.5777 20.9433 34.4919 21.1102 34.413C21.2686 34.3216 21.4108 34.2461 21.5276 34.1827C21.7618 34.0567 21.9013 33.9888 21.9013 33.9888C21.9013 33.9888 21.7934 34.0961 21.5945 34.2765C21.4948 34.3666 21.374 34.4773 21.2307 34.5992C21.0812 34.7115 20.9099 34.8356 20.7193 34.9671C20.6231 35.0312 20.5278 35.1081 20.4195 35.1693C20.3111 35.2312 20.199 35.295 20.0837 35.3606C19.9679 35.4258 19.8488 35.493 19.7272 35.5618C19.6025 35.6242 19.4712 35.6793 19.3397 35.7403C19.2073 35.8001 19.0728 35.8606 18.9368 35.9223C18.7979 35.9761 18.6563 36.0288 18.5129 36.0799C18.3691 36.1295 18.2269 36.189 18.0788 36.2308C17.931 36.2735 17.7826 36.3165 17.6341 36.3594C17.3381 36.4487 17.0339 36.5047 16.7375 36.5702C16.4397 36.6297 16.143 36.6666 15.8575 36.7078C15.5706 36.7398 15.2934 36.7697 15.029 36.7792C14.8969 36.7852 14.7689 36.794 14.6448 36.7971C14.5205 36.797 14.4004 36.7966 14.2852 36.7964C14.0551 36.8008 13.8436 36.7823 13.6575 36.774C13.4706 36.76 13.3087 36.7449 13.1753 36.7273C12.9088 36.6953 12.7588 36.6606 12.7588 36.6606Z" fill="white"/>
</g>
</g>
<g opacity="0.7">
<g opacity="0.7">
<path opacity="0.7" d="M13.5107 19.1018C13.5107 19.1018 13.9302 18.5965 14.595 17.8748C14.9262 17.5125 15.3183 17.0959 15.7445 16.6555C15.9588 16.4366 16.1762 16.2064 16.4045 15.9796C16.6317 15.752 16.8625 15.5206 17.0932 15.2894C17.3272 15.0612 17.5612 14.8329 17.7916 14.6084C18.0202 14.3824 18.2533 14.1681 18.4747 13.9562C18.9199 13.535 19.3412 13.1477 19.7073 12.8209C20.4368 12.1646 20.9473 11.7513 20.9473 11.7513C20.9473 11.7513 20.5282 12.257 19.8632 12.9787C19.5322 13.3411 19.1401 13.7578 18.7139 14.198C18.4994 14.417 18.2824 14.6477 18.0537 14.8737C17.8265 15.1013 17.5956 15.3326 17.3647 15.5638C17.1307 15.7919 16.8967 16.0201 16.6665 16.2445C16.4371 16.4701 16.2044 16.6851 15.983 16.8968C15.5376 17.3176 15.1164 17.7049 14.7502 18.0319C14.0209 18.6883 13.5107 19.1018 13.5107 19.1018Z" fill="white"/>
</g>
</g>
</svg>
